医師が教えるR言語での医療データ分析入門-2022年改訂 - 193 :時間の集計1(sld103)
…
dat <- read_csv("data/time.csv")

Rows: 400 Columns: 4
── Column specification ────────────────────────────────────────────────────────
Delimiter: ","
chr  (1): med
dbl  (1): id
date (2): start, end

ℹ Use `spec()` to retrieve the full column specification for this data.
ℹ Specify the column types or set `show_col_types = FALSE` to quiet this message.

dat

# A tibble: 400 × 4
      id med   start      end       
   <dbl> <chr> <date>     <date>    
 1     1 A     2020-04-14 2020-05-07
 2     1 B     2020-04-01 2020-04-09
 3     2 A     2020-05-12 2020-06-30
 4     2 A     2020-05-24 2020-06-17
 5     3 A     2020-05-31 2020-08-01
 6     4 B     2020-04-03 2020-06-04
 7     5 A     2020-04-26 2020-07-09
 8     5 B     2020-04-15 2020-05-10
 9     5 B     2020-04-15 2020-04-28
10     6 A     2020-05-16 2020-06-14
# ℹ 390 more rows
…
       id        med         start                 end            
 Min.   :  1.0   A:151   Min.   :2020-04-01   Min.   :2020-04-09  
 1st Qu.: 51.0   B:132   1st Qu.:2020-04-18   1st Qu.:2020-05-30  
 Median : 99.0   C:117   Median :2020-05-05   Median :2020-06-23  
 Mean   :100.9           Mean   :2020-05-03   Mean   :2020-06-23  
 3rd Qu.:150.0           3rd Qu.:2020-05-18   3rd Qu.:2020-07-20  
 Max.   :200.0           Max.   :2020-06-01   Max.   :2020-09-06  

これで、このデータは、idが1から200まで、200人分のデータで、このデータにでてくる薬の種類は、A、B、Cの3種類であることがわかります。

また、

dat2 %>% count(id, med)

# A tibble: 326 × 3
      id med       n
   <dbl> <fct> <int>
 1     1 A         1
 2     1 B         1
 3     2 A         2
 4     3 A         1
 5     4 B         1
 6     5 A         1
 7     5 B         2
 8     6 A         1
 9     6 B         1
10     7 C         1
# ℹ 316 more rows
…
